{
    "name": "Produtos",
    "alias": "produtos",
    "description": "",
    "keywords": [],
    "active": 1,
    "order": 0,
    "providers": [
        "Modules\\Produtos\\Providers\\ProdutosServiceProvider"
    ],
    "aliases": {},
    "files": [],
    "requires": []
}
